{
    "name": "laravel/laravel",
    "description": "The Laravel Framework.",
    "keywords": ["framework", "laravel"],
    "license": "MIT",
    "type": "project",
    "require": {
        "php": ">=5.5.9",
        "laravel/framework": "5.1.*",
        "zofe/rapyd": "2.1.*",
        "kalnoy/nestedset": "v3.*",
        "baum/baum": "~1.1",
        "jenssegers/date": "^3.2",
        "phpoffice/phpexcel": "^1.8",
        "maatwebsite/excel": "~2.0.0",
        "yajra/laravel-datatables-oracle": "^6.6.0",
        "doctrine/dbal": "^2.5"
    },
    "require-dev": {
        "fzaninotto/faker": "~1.4",
        "mockery/mockery": "0.9.*",
        "phpunit/phpunit": "~4.0",
        "phpspec/phpspec": "~2.1"
    },
    "autoload": {
        "classmap": [
            "database"
        ],
        "psr-4": {
            "App\\": "app/"
        }
    },
    "autoload-dev": {
        "classmap": [
            "tests/TestCase.php"
        ]
    },
    "scripts": {
        "post-install-cmd": [
            "php artisan clear-compiled",
            "php artisan optimize"
        ],
        "post-update-cmd": [
            "php artisan clear-compiled",
            "php artisan optimize"
        ],
        "post-root-package-install": [
            "php -r \"copy('.env.example', '.env');\""
        ],
        "post-create-project-cmd": [
            "php artisan key:generate"
        ]
    },
    "config": {
        "preferred-install": "dist"
    },
    "minimum-stability": "dev",
    "prefer-stable": true
}
